server {
    listen 80;
    server_name danom.cahyanugraha12.me;

    location / {
        proxy_set_header Host $host;
        proxy_set_header X-Real-IP $remote_addr;
        proxy_pass http://localhost:3001;
    }
}